{
  "project_info": {
    "project_number": "120238774954",
    "firebase_url": "https://ethiovoice.firebaseio.com",
    "project_id": "ethiovoice",
    "storage_bucket": "ethiovoice.appspot.com"
  },
  "client": [
    {
      "client_info": {
        "mobilesdk_app_id": "1:120238774954:android:a26b546ab8d15d34f10ed3",
        "android_client_info": {
          "package_name": "com.ethiovoice"
        }
      },
      "oauth_client": [
        {
          "client_id": "120238774954-9iuqi66r5o94u2d21d38r8fs3gkamop1.apps.googleusercontent.com",
          "client_type": 3
        }
      ],
      "api_key": [
        {
          "current_key": "AIzaSyCgVrlWQRFvaimp9ti4jOzMfjQ2EJvH8CU"
        }
      ],
      "services": {
        "appinvite_service": {
          "other_platform_oauth_client": [
            {
              "client_id": "120238774954-9iuqi66r5o94u2d21d38r8fs3gkamop1.apps.googleusercontent.com",
              "client_type": 3
            }
          ]
        }
      }
    }
  ],
  "configuration_version": "1"
}